{
  "project_info": {
    "project_number": "71874433397",
    "project_id": "aunthflut",
    "storage_bucket": "aunthflut.appspot.com"
  },
  "client": [
    {
      "client_info": {
        "mobilesdk_app_id": "1:71874433397:android:9007cfaef818dc1bacc33c",
        "android_client_info": {
          "package_name": "com.example.flutter_minggu11"
        }
      },
      "oauth_client": [
        {
          "client_id": "71874433397-hb3ucv0qabfs42vgra8ojjgmkc31gpfv.apps.googleusercontent.com",
          "client_type": 3
        }
      ],
      "api_key": [
        {
          "current_key": "AIzaSyCr6osNnCBqKzpq7uTZtlLojZ0fRkzGzfE"
        }
      ],
      "services": {
        "appinvite_service": {
          "other_platform_oauth_client": [
            {
              "client_id": "71874433397-hb3ucv0qabfs42vgra8ojjgmkc31gpfv.apps.googleusercontent.com",
              "client_type": 3
            }
          ]
        }
      }
    }
  ],
  "configuration_version": "1"
}